<?xml version="1.0" encoding="UTF-8" standalone="no"?>
<!-- Created with Inkscape (http://www.inkscape.org/) -->

<svg
   xmlns:dc="http://purl.org/dc/elements/1.1/"
   xmlns:cc="http://creativecommons.org/ns#"
   xmlns:rdf="http://www.w3.org/1999/02/22-rdf-syntax-ns#"
   xmlns:svg="http://www.w3.org/2000/svg"
   xmlns="http://www.w3.org/2000/svg"
   xmlns:sodipodi="http://sodipodi.sourceforge.net/DTD/sodipodi-0.dtd"
   xmlns:inkscape="http://www.inkscape.org/namespaces/inkscape"
   width="279.47226mm"
   height="112.6378mm"
   viewBox="0 0 279.47226 112.6378"
   version="1.1"
   id="svg8"
   inkscape:version="0.92.4 (5da689c313, 2019-01-14)"
   sodipodi:docname="logo.svg"
   inkscape:export-filename="C:\Users\codyc\Desktop\Tackit\tackit\BrandKit\images\gitlabicon.png"
   inkscape:export-xdpi="96"
   inkscape:export-ydpi="96">
  <defs
     id="defs2" />
  <sodipodi:namedview
     id="base"
     pagecolor="#ffffff"
     bordercolor="#666666"
     borderopacity="1.0"
     inkscape:pageopacity="0.0"
     inkscape:pageshadow="2"
     inkscape:zoom="0.49497475"
     inkscape:cx="528.1232"
     inkscape:cy="115.36367"
     inkscape:document-units="mm"
     inkscape:current-layer="layer1"
     showgrid="false"
     fit-margin-top="0"
     fit-margin-left="0"
     fit-margin-right="0"
     fit-margin-bottom="0"
     inkscape:window-width="1366"
     inkscape:window-height="705"
     inkscape:window-x="-8"
     inkscape:window-y="-8"
     inkscape:window-maximized="1" />
  <metadata
     id="metadata5">
    <rdf:RDF>
      <cc:Work
         rdf:about="">
        <dc:format>image/svg+xml</dc:format>
        <dc:type
           rdf:resource="http://purl.org/dc/dcmitype/StillImage" />
        <dc:title></dc:title>
      </cc:Work>
    </rdf:RDF>
  </metadata>
  <g
     inkscape:label="Layer 1"
     inkscape:groupmode="layer"
     id="layer1"
     transform="translate(37.694687,-61.703715)">
    <flowRoot
       transform="matrix(3.4497284,0,0,3.4497284,9994.1155,-15259.38)"
       style="font-style:normal;font-variant:normal;font-weight:normal;font-stretch:normal;font-size:40px;line-height:1.25;font-family:Calibri;-inkscape-font-specification:Calibri;letter-spacing:0px;word-spacing:0px;fill:#333333;fill-opacity:1;stroke:none;stroke-width:0.19770065"
       id="flowRoot968"
       xml:space="preserve"><flowRegion
         style="fill:#333333;stroke-width:0.19770065"
         id="flowRegion964"><rect
           style="fill:#333333;stroke-width:0.19770065"
           y="4434.5195"
           x="-2908"
           height="456"
           width="1444"
           id="rect962" /></flowRegion><flowPara
         style="font-style:normal;font-variant:normal;font-weight:normal;font-stretch:normal;font-family:'MS PGothic';-inkscape-font-specification:'MS PGothic';fill:#333333;stroke-width:0.19770065"
         id="flowPara966">t</flowPara></flowRoot>    <flowRoot
       xml:space="preserve"
       id="flowRoot976"
       style="font-style:normal;font-variant:normal;font-weight:normal;font-stretch:normal;font-size:40px;line-height:1.25;font-family:Calibri;-inkscape-font-specification:Calibri;letter-spacing:0px;word-spacing:0px;fill:#333333;fill-opacity:1;stroke:none;stroke-width:0.19770065"
       transform="matrix(3.4497284,0,0,3.4497284,10037.573,-15259.38)"><flowRegion
         id="flowRegion972"
         style="fill:#333333;stroke-width:0.19770065"><rect
           id="rect970"
           width="1444"
           height="456"
           x="-2908"
           y="4434.5195"
           style="fill:#333333;stroke-width:0.19770065" /></flowRegion><flowPara
         id="flowPara974"
         style="font-style:normal;font-variant:normal;font-weight:normal;font-stretch:normal;font-family:'MS PGothic';-inkscape-font-specification:'MS PGothic';fill:#333333;stroke-width:0.19770065">a</flowPara></flowRoot>    <path
       inkscape:connector-curvature="0"
       style="font-style:normal;font-variant:normal;font-weight:normal;font-stretch:normal;font-size:40px;line-height:1.25;font-family:Calibri;-inkscape-font-specification:Calibri;letter-spacing:0px;word-spacing:0px;fill:#333333;fill-opacity:1;stroke:none;stroke-width:0.68201351"
       d="m 94.834363,111.81521 c -7.905647,0 -14.553662,2.69492 -19.94386,8.08513 -5.749553,5.74956 -8.624117,13.47551 -8.624117,23.17788 0,9.34301 3.234069,17.24884 9.70231,23.71708 5.030845,5.03085 11.319375,7.54622 18.865667,7.54622 8.983647,0 15.811277,-2.33575 20.482777,-7.00725 0.52213,-0.52211 1.01566,-1.06329 1.48392,-1.62131 v -16.70538 h -5.79611 c 0,4.67149 -1.43743,8.44466 -4.31219,11.31943 -2.87477,2.87476 -6.827547,4.31219 -11.858397,4.31219 -4.312168,0 -7.90575,-1.43743 -10.780492,-4.31219 -3.952835,-3.95281 -5.929072,-9.52261 -5.929072,-16.70956 0,-7.54629 2.156134,-13.47559 6.468298,-17.78776 2.874768,-2.87477 6.468067,-4.31219 10.780206,-4.31219 4.31216,0 7.546207,1.07791 9.702317,3.234 2.51541,2.51543 3.95283,5.21069 4.31219,8.08546 h 7.41325 v -11.55689 c -0.76147,-1.0503 -1.61495,-2.04942 -2.56212,-2.99656 -4.31214,-4.31217 -10.78028,-6.4683 -19.404577,-6.4683 z"
       id="flowRoot984" />
    <flowRoot
       xml:space="preserve"
       id="flowRoot992"
       style="font-style:normal;font-variant:normal;font-weight:normal;font-stretch:normal;font-size:40px;line-height:1.25;font-family:Calibri;-inkscape-font-specification:Calibri;letter-spacing:0px;word-spacing:0px;fill:#ffcc00;fill-opacity:1;stroke:none;stroke-width:0.19770065"
       transform="matrix(3.4497284,0,0,3.4497284,10145.389,-15259.38)"><flowRegion
         id="flowRegion988"
         style="fill:#ffcc00;fill-opacity:1;stroke-width:0.19770065"><rect
           id="rect986"
           width="1444"
           height="456"
           x="-2908"
           y="4434.5195"
           style="fill:#ffcc00;fill-opacity:1;stroke-width:0.19770065" /></flowRegion><flowPara
         id="flowPara990"
         style="font-style:normal;font-variant:normal;font-weight:normal;font-stretch:normal;font-family:'MS PGothic';-inkscape-font-specification:'MS PGothic';fill:#ffcc00;fill-opacity:1;stroke-width:0.19770065">k</flowPara><flowPara
         style="font-style:normal;font-variant:normal;font-weight:normal;font-stretch:normal;font-family:'MS PGothic';-inkscape-font-specification:'MS PGothic';fill:#ffcc00;fill-opacity:1;stroke-width:0.19770065"
         id="flowPara994" /></flowRoot>    <path
       inkscape:connector-curvature="0"
       style="font-style:normal;font-variant:normal;font-weight:normal;font-stretch:normal;font-size:40px;line-height:1.25;font-family:Calibri;-inkscape-font-specification:Calibri;letter-spacing:0px;word-spacing:0px;fill:#ffcc00;fill-opacity:1;stroke:none;stroke-width:0.68201351"
       d="m 179.25563,112.35413 v 60.37025 h 10.78023 v -60.37025 z"
       id="flowRoot1004" />
    <flowRoot
       xml:space="preserve"
       id="flowRoot1014"
       style="font-style:normal;font-variant:normal;font-weight:normal;font-stretch:normal;font-size:40px;line-height:1.25;font-family:Calibri;-inkscape-font-specification:Calibri;letter-spacing:0px;word-spacing:0px;fill:#ffcc00;fill-opacity:1;stroke:none;stroke-width:0.19770065"
       transform="matrix(3.4497284,0,0,3.4497284,10226.693,-15259.38)"><flowRegion
         id="flowRegion1008"
         style="fill:#ffcc00;fill-opacity:1;stroke-width:0.19770065"><rect
           id="rect1006"
           width="1444"
           height="456"
           x="-2908"
           y="4434.5195"
           style="fill:#ffcc00;fill-opacity:1;stroke-width:0.19770065" /></flowRegion><flowPara
         id="flowPara1010"
         style="font-style:normal;font-variant:normal;font-weight:normal;font-stretch:normal;font-family:'MS PGothic';-inkscape-font-specification:'MS PGothic';fill:#ffcc00;fill-opacity:1;stroke-width:0.19770065">t</flowPara><flowPara
         style="font-style:normal;font-variant:normal;font-weight:normal;font-stretch:normal;font-family:'MS PGothic';-inkscape-font-specification:'MS PGothic';fill:#ffcc00;fill-opacity:1;stroke-width:0.19770065"
         id="flowPara1012" /></flowRoot>    <path
       inkscape:transform-center-x="-1.0835592"
       transform="matrix(0.09099467,-0.07236099,0.2299785,0.28920029,-22.4862,-196.76517)"
       inkscape:transform-center-y="2.4534965"
       d="m -244.28435,998.87129 -51.86613,-89.83477 103.73226,0 z"
       inkscape:randomized="0"
       inkscape:rounded="0"
       inkscape:flatsided="true"
       sodipodi:arg2="2.6179939"
       sodipodi:arg1="1.5707963"
       sodipodi:r2="29.944921"
       sodipodi:r1="59.889847"
       sodipodi:cy="938.98145"
       sodipodi:cx="-244.28435"
       sodipodi:sides="3"
       id="path1022"
       style="opacity:1;fill:#4d4d4d;fill-opacity:1;stroke:none;stroke-width:3.29578304;stroke-linecap:round;stroke-miterlimit:4;stroke-dasharray:none;stroke-opacity:1"
       sodipodi:type="star" />
    <path
       style="opacity:1;fill:#c83737;fill-opacity:1;stroke:none;stroke-width:0.68308753;stroke-linecap:round;stroke-miterlimit:4;stroke-dasharray:none;stroke-opacity:1"
       d="m 181.50454,80.936225 c 3.24056,4.075146 -0.65621,10.387799 -7.39454,15.746409 -6.73839,5.358466 -13.76659,7.733496 -17.00718,3.658406 -1.62026,-2.037456 -3.02152,-5.696946 -2.75994,-9.846976 0.26151,-4.150079 2.18573,-8.791028 5.5549,-11.470278 3.36922,-2.679276 8.3761,-3.550225 12.53045,-2.911525 4.15423,0.63839 7.45605,2.786559 9.07631,4.823964 z"
       id="path1024"
       inkscape:connector-curvature="0"
       sodipodi:nodetypes="sssssss" />
    <path
       style="opacity:1;fill:#d35f5f;fill-opacity:1;stroke:none;stroke-width:0.68308753;stroke-linecap:round;stroke-miterlimit:4;stroke-dasharray:none;stroke-opacity:1"
       d="m 148.58807,72.293079 9.87363,16.443335 0.008,-0.0103 a 4.834687,7.317365 51.507499 0 0 0.18353,0.27055 4.834687,7.317365 51.507499 0 0 8.7363,-0.77049 4.834687,7.317365 51.507499 0 0 2.7181,-8.338311 4.834687,7.317365 51.507499 0 0 -0.21653,-0.244107 v -2.83e-4 l -0.008,-0.01289 a 4.834687,7.317365 51.507499 0 0 -0.018,-0.01804 L 156.0908,66.311281 Z"
       id="path1026"
       inkscape:connector-curvature="0" />
    <ellipse
       transform="rotate(-38.492501)"
       ry="5.7616091"
       rx="10.575917"
       cy="149.54459"
       cx="76.097733"
       id="ellipse1028"
       style="opacity:1;fill:#c83737;fill-opacity:1;stroke:none;stroke-width:0.68308753;stroke-linecap:round;stroke-miterlimit:4;stroke-dasharray:none;stroke-opacity:1" />
  </g>
</svg>
